{
  "root": [
    {
      "methods": [
        "HEAD",
        "GET"
      ],
      "name": "drive.local.serve",
      "pattern": "/uploads/*",
      "handler": "Closure",
      "middleware": []
    },
    {
      "methods": [
        "HEAD",
        "GET"
      ],
      "name": "",
      "pattern": "/",
      "handler": "Closure",
      "middleware": []
    }
  ]
}
